{
  "project_info": {
    "project_number": "731452684828",
    "firebase_url": "https://medplan-f13f2.firebaseio.com",
    "project_id": "medplan-f13f2",
    "storage_bucket": "medplan-f13f2.appspot.com"
  },
  "client": [
    {
      "client_info": {
        "mobilesdk_app_id": "1:731452684828:android:0b6ffb0088968ff57fbdd9",
        "android_client_info": {
          "package_name": "com.example.mobile_app"
        }
      },
      "oauth_client": [
        {
          "client_id": "731452684828-hqc4pqfog8adru7k2jjhtum0fdkekluq.apps.googleusercontent.com",
          "client_type": 1,
          "android_info": {
            "package_name": "com.example.mobile_app",
            "certificate_hash": "773b0569f21b0e835fbdb9a9e0bbbab74eb91e6b"
          }
        },
        {
          "client_id": "731452684828-sttkmfmohcfsdnm37jdnb1v6ujgsh5oo.apps.googleusercontent.com",
          "client_type": 1,
          "android_info": {
            "package_name": "com.example.mobile_app",
            "certificate_hash": "3b09c4047cc88bec097fba5f72ebba483c78c543"
          }
        },
        {
          "client_id": "731452684828-a8t8hmqahvtpv4s6oupfeep9r55ehor0.apps.googleusercontent.com",
          "client_type": 3
        }
      ],
      "api_key": [
        {
          "current_key": "AIzaSyAni27uvPJn_xNzU7R3IPJgedh0PcHZRq4"
        }
      ],
      "services": {
        "appinvite_service": {
          "other_platform_oauth_client": [
            {
              "client_id": "731452684828-a8t8hmqahvtpv4s6oupfeep9r55ehor0.apps.googleusercontent.com",
              "client_type": 3
            },
            {
              "client_id": "731452684828-k90232igdgvqno3cb4noosg0b010vke6.apps.googleusercontent.com",
              "client_type": 2,
              "ios_info": {
                "bundle_id": "com.example.medplan"
              }
            }
          ]
        }
      }
    }
  ],
  "configuration_version": "1"
}